OpenFPGA_FIles_Config/article_3x3_FPGA/addition/k4_N4_tileable_130nm_SKY130_article/addition/MIN_ROUTE_CHAN_WIDTH/addition_formal.vcd
$date
	Sat May 24 14:19:19 2025
$end
$version
	Icarus Verilog
$end
$timescale
	1ps
$end
$scope module addition_autocheck_top_tb $end
$var wire 1 ! __config_all_done__ $end
$var wire 1 " __op_clock__ $end
$var wire 1 # __prog_clock__ $end
$var wire 1 $ c4_benchmark $end
$var wire 1 % clk $end
$var wire 12 & gfpga_pad_GPIO_PAD [0:11] $end
$var wire 1 ' prog_clk $end
$var wire 1 ( reset $end
$var wire 1 ) set $end
$var wire 1 * ccff_tail $end
$var wire 1 + c4_fpga $end
$var wire 1 , c3_fpga $end
$var wire 1 - c3_benchmark $end
$var wire 1 . c2_fpga $end
$var wire 1 / c2_benchmark $end
$var wire 1 0 c1_fpga $end
$var wire 1 1 c1_benchmark $end
$var wire 1 2 c0_fpga $end
$var wire 1 3 c0_benchmark $end
$var reg 1 4 __config_done__ $end
$var reg 1 5 __greset__ $end
$var reg 1 6 __gset__ $end
$var reg 1 7 __op_clock___reg__ $end
$var reg 1 8 __prog_clock___reg__ $end
$var reg 1 9 __prog_reset__ $end
$var reg 1 : __prog_set_ $end
$var reg 1 ; a0_shared_input $end
$var reg 1 < a1_shared_input $end
$var reg 1 = a2_shared_input $end
$var reg 1 > b0_shared_input $end
$var reg 1 ? b1_shared_input $end
$var reg 1 @ b2_shared_input $end
$var reg 12 A bit_index [11:0] $end
$var reg 1 B c0_flag $end
$var reg 1 C c1_flag $end
$var reg 1 D c2_flag $end
$var reg 1 E c3_flag $end
$var reg 1 F c4_flag $end
$var reg 1 G ccff_head $end
$var reg 12 H ibit [11:0] $end
$var reg 1 I sim_start $end
$var reg 1 J skip_bits $end
$var integer 32 K nb_error [31:0] $end
$upscope $end
$enddefinitions $end
#0
$dumpvars
b1 K
0J
1I
b11110111101 H
0G
0F
0E
0D
0C
0B
b0 A
1@
0?
0>
0=
1<
0;
1:
19
08
07
06
15
04
03
x2
11
x0
1/
x.
0-
x,
x+
x*
0)
1(
0'
bx &
0%
x$
0#
0"
0!
$end
#5000
18
#10000
b1 A
08
0:
09
#15000
1'
1#
18
#20000
b10 A
0'
0#
08
#25000
1'
1#
18
#30000
b11 A
0'
0#
08
#35000
1'
1#
18
#40000
b100 A
0'
0#
08
#45000
1'
1#
18
#50000
b101 A
0'
0#
08
#55000
1'
1#
18
#60000
b110 A
0'
0#
08
#65000
1'
1#
18
#70000
b111 A
0'
0#
08
#75000
1'
1#
18
#80000
b1000 A
0'
0#
08
#85000
1'
1#
18
#90000
b1001 A
0'
0#
08
#95000
1'
1#
18
#100000
b1010 A
0'
0#
08
#105000
1'
1#
18
#110000
b1011 A
0'
0#
08
#115000
1'
1#
18
#120000
b1100 A
0'
0#
08
#125000
1'
1#
18
#130000
b1101 A
0'
0#
08
#135000
1'
1#
18
#140000
b1110 A
0'
0#
08
#145000
1'
1#
18
#150000
b1111 A
0'
0#
08
#155000
1'
1#
18
#160000
b10000 A
0'
0#
08
#165000
1'
1#
18
#170000
b10001 A
0'
0#
08
#175000
1'
1#
18
#180000
b10010 A
0'
0#
08
#185000
1'
1#
18
#190000
b10011 A
0'
0#
08
#195000
1'
1#
18
#200000
b10100 A
0'
0#
08
#205000
1'
1#
18
#210000
b10101 A
0'
0#
08
#215000
1'
1#
18
#220000
b10110 A
0'
0#
08
#225000
1'
1#
18
#230000
b10111 A
0'
0#
08
#235000
1'
1#
18
#240000
b11000 A
0'
0#
08
#245000
1'
1#
18
#250000
b11001 A
0'
0#
08
#255000
bx0xxxxxxxxx &
1'
1#
18
#260000
b11010 A
0'
0#
08
#265000
1'
1#
18
#270000
b11011 A
0'
0#
08
#275000
1'
1#
18
#280000
b11100 A
0'
0#
08
#285000
1'
1#
18
#290000
b11101 A
0'
0#
08
#295000
1'
1#
18
#300000
b11110 A
0'
0#
08
#305000
1'
1#
18
#310000
b11111 A
0'
0#
08
#315000
1'
1#
18
#320000
b100000 A
0'
0#
08
#325000
1'
1#
18
#330000
b100001 A
0'
0#
08
#335000
1'
1#
18
#340000
b100010 A
0'
0#
08
#345000
1'
1#
18
#350000
b100011 A
0'
0#
08
#355000
1'
1#
18
#360000
b100100 A
0'
0#
08
#365000
1'
1#
18
#370000
b100101 A
0'
0#
08
#375000
1'
1#
18
#380000
b100110 A
0'
0#
08
#385000
1'
1#
18
#390000
b100111 A
0'
0#
08
#395000
1'
1#
18
#400000
b101000 A
0'
0#
08
#405000
1'
1#
18
#410000
b101001 A
0'
0#
08
#415000
1'
1#
18
#420000
b101010 A
0'
0#
08
#425000
1'
1#
18
#430000
b101011 A
0'
0#
08
#435000
1'
1#
18
#440000
b101100 A
0'
0#
08
#445000
1'
1#
18
#450000
b101101 A
0'
0#
08
#455000
1'
1#
18
#460000
b101110 A
0'
0#
08
#465000
1'
1#
18
#470000
b101111 A
0'
0#
08
#475000
1'
1#
18
#480000
b110000 A
0'
0#
08
#485000
1'
1#
18
#490000
b110001 A
0'
0#
08
#495000
1'
1#
18
#500000
b110010 A
0'
0#
08
#505000
1'
1#
18
#510000
b110011 A
0'
0#
08
#515000
1'
1#
18
#520000
b110100 A
0'
0#
08
#525000
1'
1#
18
#530000
b110101 A
0'
0#
08
#535000
1'
1#
18
#540000
b110110 A
0'
0#
08
#545000
1'
1#
18
#550000
b110111 A
0'
0#
08
#555000
1'
1#
18
#560000
b111000 A
0'
0#
08
#565000
1'
1#
18
#570000
b111001 A
0'
0#
08
#575000
1'
1#
18
#580000
b111010 A
0'
0#
08
#585000
1'
1#
18
#590000
b111011 A
0'
0#
08
#595000
1'
1#
18
#600000
b111100 A
0'
0#
08
#605000
1'
1#
18
#610000
b111101 A
0'
0#
08
#615000
1'
1#
18
#620000
b111110 A
0'
0#
08
#625000
1'
1#
18
#630000
b111111 A
0'
0#
08
#635000
1'
1#
18
#640000
b1000000 A
0'
0#
08
#645000
1'
1#
18
#650000
b1000001 A
0'
0#
08
#655000
1'
1#
18
#660000
b1000010 A
0'
0#
08
#665000
1'
1#
18
#670000
b1000011 A
0'
0#
08
#675000
1'
1#
18
#680000
b1000100 A
0'
0#
08
#685000
1'
1#
18
#690000
b1000101 A
0'
0#
08
#695000
1'
1#
18
#700000
b1000110 A
0'
0#
08
#705000
1'
1#
18
#710000
b1000111 A
0'
0#
08
#715000
1'
1#
18
#720000
b1001000 A
0'
0#
08
#725000
1'
1#
18
#730000
b1001001 A
0'
0#
08
#735000
1'
1#
18
#740000
b1001010 A
0'
0#
08
#745000
1'
1#
18
#750000
b1001011 A
0'
0#
08
#755000
1'
1#
18
#760000
b1001100 A
0'
0#
08
#765000
1'
1#
18
#770000
b1001101 A
0'
0#
08
#775000
1'
1#
18
#780000
b1001110 A
0'
0#
08
#785000
1'
1#
18
#790000
b1001111 A
0'
0#
08
#795000
1'
1#
18
#800000
b1010000 A
0'
0#
08
#805000
1'
1#
18
#810000
b1010001 A
0'
0#
08
#815000
1'
1#
18
#820000
b1010010 A
0'
0#
08
#825000
1'
1#
18
#830000
b1010011 A
0'
0#
08
#835000
1'
1#
18
#840000
b1010100 A
0'
0#
08
#845000
1'
1#
18
#850000
b1010101 A
0'
0#
08
#855000
1'
1#
18
#860000
b1010110 A
0'
0#
08
#865000
1'
1#
18
#870000
b1010111 A
0'
0#
08
#875000
1'
1#
18
#880000
b1011000 A
0'
0#
08
#885000
1'
1#
18
#890000
b1011001 A
0'
0#
08
#895000
1'
1#
18
#900000
b1011010 A
0'
0#
08
#905000
1'
1#
18
#910000
b1011011 A
0'
0#
08
#915000
1'
1#
18
#920000
b1011100 A
0'
0#
08
#925000
1'
1#
18
#930000
b1011101 A
0'
0#
08
#935000
1'
1#
18
#940000
b1011110 A
0'
0#
08
#945000
1'
1#
18
#950000
b1011111 A
0'
0#
08
#955000
1'
1#
18
#960000
b1100000 A
0'
0#
08
#965000
1'
1#
18
#970000
b1100001 A
0'
0#
08
#975000
1'
1#
18
#980000
b1100010 A
0'
0#
08
#985000
1'
1#
18
#990000
b1100011 A
0'
0#
08
#995000
1'
1#
18
#1000000
b1100100 A
0'
0#
08
#1005000
1'
1#
18
#1010000
b1100101 A
0'
0#
08
#1015000
1'
1#
18
#1020000
b1100110 A
0'
0#
08
#1025000
1'
1#
18
#1030000
b1100111 A
0'
0#
08
#1035000
1'
1#
18
#1040000
b1101000 A
0'
0#
08
#1045000
1'
1#
18
#1050000
b1101001 A
0'
0#
08
#1055000
1'
1#
18
#1060000
b1101010 A
0'
0#
08
#1065000
1'
1#
18
#1070000
b1101011 A
0'
0#
08
#1075000
1'
1#
18
#1080000
b1101100 A
0'
0#
08
#1085000
1'
1#
18
#1090000
b1101101 A
0'
0#
08
#1095000
1'
1#
18
#1100000
b1101110 A
0'
0#
08
#1105000
1'
1#
18
#1110000
b1101111 A
0'
0#
08
#1115000
1'
1#
18
#1120000
b1110000 A
0'
0#
08
#1125000
1'
1#
18
#1130000
b1110001 A
0'
0#
08
#1135000
1'
1#
18
#1140000
b1110010 A
0'
0#
08
#1145000
1'
1#
18
#1150000
b1110011 A
0'
0#
08
#1155000
1'
1#
18
#1160000
b1110100 A
0'
0#
08
#1165000
1'
1#
18
#1170000
b1110101 A
0'
0#
08
#1175000
1'
1#
18
#1180000
b1110110 A
0'
0#
08
#1185000
1'
1#
18
#1190000
b1110111 A
0'
0#
08
#1195000
b0x0xxxxxxxxx &
1'
1#
18
#1200000
b1111000 A
0'
0#
08
#1205000
1'
1#
18
#1210000
b1111001 A
0'
0#
08
#1215000
1'
1#
18
#1220000
b1111010 A
0'
0#
08
#1225000
1'
1#
18
#1230000
b1111011 A
0'
0#
08
#1235000
1'
1#
18
#1240000
b1111100 A
0'
0#
08
#1245000
1'
1#
18
#1250000
b1111101 A
0'
0#
08
#1255000
1'
1#
18
#1260000
b1111110 A
0'
0#
08
#1265000
1'
1#
18
#1270000
b1111111 A
0'
0#
08
#1275000
1'
1#
18
#1280000
b10000000 A
0'
0#
08
#1285000
1'
1#
18
#1290000
b10000001 A
0'
0#
08
#1295000
1'
1#
18
#1300000
b10000010 A
0'
0#
08
#1305000
1'
1#
18
#1310000
b10000011 A
0'
0#
08
#1315000
1'
1#
18
#1320000
b10000100 A
0'
0#
08
#1325000
1'
1#
18
#1330000
b10000101 A
0'
0#
08
#1335000
1'
1#
18
#1340000
b10000110 A
0'
0#
08
#1345000
1'
1#
18
#1350000
b10000111 A
0'
0#
08
#1355000
1'
1#
18
#1360000
b10001000 A
0'
0#
08
#1365000
1'
1#
18
#1370000
b10001001 A
0'
0#
08
#1375000
1'
1#
18
#1380000
b10001010 A
0'
0#
08
#1385000
1'
1#
18
#1390000
b10001011 A
0'
0#
08
#1395000
1'
1#
18
#1400000
b10001100 A
0'
0#
08
#1405000
1'
1#
18
#1410000
b10001101 A
0'
0#
08
#1415000
1'
1#
18
#1420000
b10001110 A
0'
0#
08
#1425000
1'
1#
18
#1430000
b10001111 A
0'
0#
08
#1435000
1'
1#
18
#1440000
b10010000 A
0'
0#
08
#1445000
1'
1#
18
#1450000
b10010001 A
0'
0#
08
#1455000
1'
1#
18
#1460000
b10010010 A
0'
0#
08
#1465000
1'
1#
18
#1470000
b10010011 A
0'
0#
08
#1475000
1'
1#
18
#1480000
b10010100 A
0'
0#
08
#1485000
1'
1#
18
#1490000
b10010101 A
0'
0#
08
#1495000
1'
1#
18
#1500000
b10010110 A
0'
0#
08
#1505000
1'
1#
18
#1510000
b10010111 A
0'
0#
08
#1515000
1'
1#
18
#1520000
b10011000 A
0'
0#
08
#1525000
1'
1#
18
#1530000
b10011001 A
0'
0#
08
#1535000
1'
1#
18
#1540000
b10011010 A
0'
0#
08
#1545000
1'
1#
18
#1550000
b10011011 A
0'
0#
08
#1555000
1'
1#
18
#1560000
b10011100 A
0'
0#
08
#1565000
1'
1#
18
#1570000
b10011101 A
0'
0#
08
#1575000
1'
1#
18
#1580000
b10011110 A
0'
0#
08
#1585000
1'
1#
18
#1590000
b10011111 A
0'
0#
08
#1595000
1'
1#
18
#1600000
b10100000 A
0'
0#
08
#1605000
1'
1#
18
#1610000
b10100001 A
0'
0#
08
#1615000
1'
1#
18
#1620000
b10100010 A
0'
0#
08
#1625000
1'
1#
18
#1630000
b10100011 A
0'
0#
08
#1635000
1'
1#
18
#1640000
b10100100 A
0'
0#
08
#1645000
1'
1#
18
#1650000
b10100101 A
0'
0#
08
#1655000
1'
1#
18
#1660000
b10100110 A
0'
0#
08
#1665000
1'
1#
18
#1670000
b10100111 A
0'
0#
08
#1675000
1'
1#
18
#1680000
b10101000 A
0'
0#
08
#1685000
b0x0xxxxxxxx0 &
1'
1#
18
#1690000
b10101001 A
0'
0#
08
#1695000
1'
1#
18
#1700000
b10101010 A
0'
0#
08
#1705000
1'
1#
18
#1710000
b10101011 A
0'
0#
08
#1715000
1'
1#
18
#1720000
b10101100 A
0'
0#
08
#1725000
1'
1#
18
#1730000
b10101101 A
0'
0#
08
#1735000
1'
1#
18
#1740000
b10101110 A
0'
0#
08
#1745000
1'
1#
18
#1750000
b10101111 A
1G
0'
0#
08
#1755000
z.
b0x0xxxxxzxx0 &
1'
1#
18
#1760000
b10110000 A
0'
0#
08
#1765000
z0
b0x0xxxxzzxx0 &
1'
1#
18
#1770000
b10110001 A
0G
0'
0#
08
#1775000
z2
x.
b0x0xxxzzxxx0 &
1'
1#
18
#1780000
b10110010 A
0'
0#
08
#1785000
x0
b0x0xx1zxxxx0 &
1'
1#
18
#1790000
b10110011 A
0'
0#
08
#1795000
x2
b0x0x01xxxxx0 &
1'
1#
18
#1800000
b10110100 A
0'
0#
08
#1805000
b0x000xxxxxx0 &
1'
1#
18
#1810000
b10110101 A
1G
0'
0#
08
#1815000
z.
b0x00xxxxzxx0 &
1'
1#
18
#1820000
b10110110 A
0'
0#
08
#1825000
z0
b0x0xxxxzzxx0 &
1'
1#
18
#1830000
b10110111 A
0'
0#
08
#1835000
z2
b0x0xxxzzzxx0 &
1'
1#
18
#1840000
b10111000 A
0G
0'
0#
08
#1845000
x.
b0x0xx1zzxxx0 &
1'
1#
18
#1850000
b10111001 A
1G
0'
0#
08
#1855000
x0
z.
b0x0x01zxzxx0 &
1'
1#
18
#1860000
b10111010 A
0G
0'
0#
08
#1865000
x2
z0
x.
b0x0001xzxxx0 &
1'
1#
18
#1870000
b10111011 A
0'
0#
08
#1875000
z2
x0
b0x000xzxxxx0 &
1'
1#
18
#1880000
b10111100 A
0'
0#
08
#1885000
x2
b0x00x1xxxxx0 &
1'
1#
18
#1890000
b10111101 A
0'
0#
08
#1895000
b0x0x0xxxxxx0 &
1'
1#
18
#1900000
b10111110 A
0'
0#
08
#1905000
b0x00xxxxxxx0 &
1'
1#
18
#1910000
b10111111 A
0'
0#
08
#1915000
b0x0xxxxxxxx0 &
1'
1#
18
#1920000
b11000000 A
0'
0#
08
#1925000
b0x0xxxxxxxx0 &
1'
1#
18
#1930000
b11000001 A
0'
0#
08
#1935000
b0x0xxxxxxxx0 &
1'
1#
18
#1940000
b11000010 A
0'
0#
08
#1945000
1'
1#
18
#1950000
b11000011 A
0'
0#
08
#1955000
1'
1#
18
#1960000
b11000100 A
0'
0#
08
#1965000
1'
1#
18
#1970000
b11000101 A
0'
0#
08
#1975000
1'
1#
18
#1980000
b11000110 A
0'
0#
08
#1985000
b0x0xxxxxxxx0 &
1'
1#
18
#1990000
b11000111 A
0'
0#
08
#1995000
1'
1#
18
#2000000
b11001000 A
0'
0#
08
#2005000
1'
1#
18
#2010000
b11001001 A
0'
0#
08
#2015000
b0x0xxxxxxxx0 &
1'
1#
18
#2020000
b11001010 A
0'
0#
08
#2025000
b0x0xxxxxxxx0 &
1'
1#
18
#2030000
b11001011 A
0'
0#
08
#2035000
1'
1#
18
#2040000
b11001100 A
0'
0#
08
#2045000
1'
1#
18
#2050000
b11001101 A
0'
0#
08
#2055000
1'
1#
18
#2060000
b11001110 A
0'
0#
08
#2065000
1'
1#
18
#2070000
b11001111 A
0'
0#
08
#2075000
1'
1#
18
#2080000
b11010000 A
0'
0#
08
#2085000
1'
1#
18
#2090000
b11010001 A
0'
0#
08
#2095000
0+
b0x0xxxxxxx00 &
1'
1#
18
#2100000
b11010010 A
0'
0#
08
#2105000
1'
1#
18
#2110000
b11010011 A
0'
0#
08
#2115000
1'
1#
18
#2120000
b11010100 A
0'
0#
08
#2125000
1'
1#
18
#2130000
b11010101 A
0'
0#
08
#2135000
1'
1#
18
#2140000
b11010110 A
0'
0#
08
#2145000
1'
1#
18
#2150000
b11010111 A
0'
0#
08
#2155000
1'
1#
18
#2160000
b11011000 A
0'
0#
08
#2165000
1'
1#
18
#2170000
b11011001 A
0'
0#
08
#2175000
1'
1#
18
#2180000
b11011010 A
0'
0#
08
#2185000
1'
1#
18
#2190000
b11011011 A
0'
0#
08
#2195000
1'
1#
18
#2200000
b11011100 A
0'
0#
08
#2205000
1'
1#
18
#2210000
b11011101 A
0'
0#
08
#2215000
1'
1#
18
#2220000
b11011110 A
0'
0#
08
#2225000
1'
1#
18
#2230000
b11011111 A
0'
0#
08
#2235000
1'
1#
18
#2240000
b11100000 A
0'
0#
08
#2245000
1'
1#
18
#2250000
b11100001 A
0'
0#
08
#2255000
1'
1#
18
#2260000
b11100010 A
0'
0#
08
#2265000
0,
b0x0xxxxxx000 &
1'
1#
18
#2270000
b11100011 A
0'
0#
08
#2275000
1'
1#
18
#2280000
b11100100 A
0'
0#
08
#2285000
1'
1#
18
#2290000
b11100101 A
0'
0#
08
#2295000
1'
1#
18
#2300000
b11100110 A
0'
0#
08
#2305000
1'
1#
18
#2310000
b11100111 A
0'
0#
08
#2315000
1'
1#
18
#2320000
b11101000 A
0'
0#
08
#2325000
1'
1#
18
#2330000
b11101001 A
0'
0#
08
#2335000
1'
1#
18
#2340000
b11101010 A
0'
0#
08
#2345000
1'
1#
18
#2350000
b11101011 A
0'
0#
08
#2355000
1'
1#
18
#2360000
b11101100 A
0'
0#
08
#2365000
1'
1#
18
#2370000
b11101101 A
0'
0#
08
#2375000
1'
1#
18
#2380000
b11101110 A
0'
0#
08
#2385000
b10xxxxxx000 &
1'
1#
18
#2390000
b11101111 A
0'
0#
08
#2395000
b10xxxxxx000 &
1'
1#
18
#2400000
b11110000 A
0'
0#
08
#2405000
b0x0xxxxxx000 &
1'
1#
18
#2410000
b11110001 A
0'
0#
08
#2415000
1'
1#
18
#2420000
b11110010 A
0'
0#
08
#2425000
1'
1#
18
#2430000
b11110011 A
0'
0#
08
#2435000
1'
1#
18
#2440000
b11110100 A
0'
0#
08
#2445000
1'
1#
18
#2450000
b11110101 A
0'
0#
08
#2455000
b0x0xxxxxx000 &
1'
1#
18
#2460000
b11110110 A
0'
0#
08
#2465000
b10xxxxxx000 &
1'
1#
18
#2470000
b11110111 A
0'
0#
08
#2475000
1'
1#
18
#2480000
b11111000 A
0'
0#
08
#2485000
b0x0xxxxxx000 &
1'
1#
18
#2490000
b11111001 A
0'
0#
08
#2495000
1'
1#
18
#2500000
b11111010 A
0'
0#
08
#2505000
1'
1#
18
#2510000
b11111011 A
0'
0#
08
#2515000
1'
1#
18
#2520000
b11111100 A
0'
0#
08
#2525000
b10xxxxxx000 &
1'
1#
18
#2530000
b11111101 A
0'
0#
08
#2535000
1'
1#
18
#2540000
b11111110 A
0'
0#
08
#2545000
1'
1#
18
#2550000
b11111111 A
0'
0#
08
#2555000
b0x0xxxxxx000 &
1'
1#
18
#2560000
b100000000 A
0'
0#
08
#2565000
b10xxxxxx000 &
1'
1#
18
#2570000
b100000001 A
0'
0#
08
#2575000
b0x0xxxxxx000 &
1'
1#
18
#2580000
b100000010 A
0'
0#
08
#2585000
1'
1#
18
#2590000
b100000011 A
0'
0#
08
#2595000
1'
1#
18
#2600000
b100000100 A
0'
0#
08
#2605000
1'
1#
18
#2610000
b100000101 A
0'
0#
08
#2615000
1'
1#
18
#2620000
b100000110 A
0'
0#
08
#2625000
1'
1#
18
#2630000
b100000111 A
0'
0#
08
#2635000
1'
1#
18
#2640000
b100001000 A
0'
0#
08
#2645000
0.
b0x0xxxxx0000 &
1'
1#
18
#2650000
b100001001 A
0'
0#
08
#2655000
1'
1#
18
#2660000
b100001010 A
0'
0#
08
#2665000
1'
1#
18
#2670000
b100001011 A
0'
0#
08
#2675000
1'
1#
18
#2680000
b100001100 A
0'
0#
08
#2685000
1'
1#
18
#2690000
b100001101 A
0'
0#
08
#2695000
1'
1#
18
#2700000
b100001110 A
0'
0#
08
#2705000
1'
1#
18
#2710000
b100001111 A
0'
0#
08
#2715000
1'
1#
18
#2720000
b100010000 A
0'
0#
08
#2725000
1'
1#
18
#2730000
b100010001 A
0'
0#
08
#2735000
1'
1#
18
#2740000
b100010010 A
0'
0#
08
#2745000
1'
1#
18
#2750000
b100010011 A
0'
0#
08
#2755000
1'
1#
18
#2760000
b100010100 A
0'
0#
08
#2765000
1'
1#
18
#2770000
b100010101 A
0'
0#
08
#2775000
1'
1#
18
#2780000
b100010110 A
0'
0#
08
#2785000
1'
1#
18
#2790000
b100010111 A
0'
0#
08
#2795000
1'
1#
18
#2800000
b100011000 A
0'
0#
08
#2805000
1'
1#
18
#2810000
b100011001 A
0'
0#
08
#2815000
1'
1#
18
#2820000
b100011010 A
0'
0#
08
#2825000
1'
1#
18
#2830000
b100011011 A
0'
0#
08
#2835000
1'
1#
18
#2840000
b100011100 A
0'
0#
08
#2845000
1'
1#
18
#2850000
b100011101 A
0'
0#
08
#2855000
bx0xxxxx0000 &
1'
1#
18
#2860000
b100011110 A
0'
0#
08
#2865000
bx0xxxxx0000 &
1'
1#
18
#2870000
b100011111 A
0'
0#
08
#2875000
b0x0xxxxx0000 &
1'
1#
18
#2880000
b100100000 A
0'
0#
08
#2885000
1'
1#
18
#2890000
b100100001 A
0'
0#
08
#2895000
1'
1#
18
#2900000
b100100010 A
0'
0#
08
#2905000
1'
1#
18
#2910000
b100100011 A
0'
0#
08
#2915000
1'
1#
18
#2920000
b100100100 A
0'
0#
08
#2925000
b0x0xxxxx0000 &
1'
1#
18
#2930000
b100100101 A
0'
0#
08
#2935000
1'
1#
18
#2940000
b100100110 A
0'
0#
08
#2945000
1'
1#
18
#2950000
b100100111 A
0'
0#
08
#2955000
b0x0xxxxx0000 &
1'
1#
18
#2960000
b100101000 A
0'
0#
08
#2965000
b0x0xxxxx0000 &
1'
1#
18
#2970000
b100101001 A
0'
0#
08
#2975000
1'
1#
18
#2980000
b100101010 A
0'
0#
08
#2985000
1'
1#
18
#2990000
b100101011 A
0'
0#
08
#2995000
1'
1#
18
#3000000
b100101100 A
0'
0#
08
#3005000
1'
1#
18
#3010000
b100101101 A
0'
0#
08
#3015000
1'
1#
18
#3020000
b100101110 A
0'
0#
08
#3025000
1'
1#
18
#3030000
b100101111 A
0'
0#
08
#3035000
1'
1#
18
#3040000
b100110000 A
0'
0#
08
#3045000
1'
1#
18
#3050000
b100110001 A
0'
0#
08
#3055000
1'
1#
18
#3060000
b100110010 A
0'
0#
08
#3065000
1'
1#
18
#3070000
b100110011 A
0'
0#
08
#3075000
1'
1#
18
#3080000
b100110100 A
0'
0#
08
#3085000
1'
1#
18
#3090000
b100110101 A
0'
0#
08
#3095000
1'
1#
18
#3100000
b100110110 A
0'
0#
08
#3105000
1'
1#
18
#3110000
b100110111 A
0'
0#
08
#3115000
1'
1#
18
#3120000
b100111000 A
0'
0#
08
#3125000
1'
1#
18
#3130000
b100111001 A
0'
0#
08
#3135000
1'
1#
18
#3140000
b100111010 A
0'
0#
08
#3145000
1'
1#
18
#3150000
b100111011 A
0'
0#
08
#3155000
1'
1#
18
#3160000
b100111100 A
0'
0#
08
#3165000
1'
1#
18
#3170000
b100111101 A
0'
0#
08
#3175000
1'
1#
18
#3180000
b100111110 A
0'
0#
08
#3185000
1'
1#
18
#3190000
b100111111 A
0'
0#
08
#3195000
1'
1#
18
#3200000
b101000000 A
0'
0#
08
#3205000
1'
1#
18
#3210000
b101000001 A
0'
0#
08
#3215000
1'
1#
18
#3220000
b101000010 A
0'
0#
08
#3225000
1'
1#
18
#3230000
b101000011 A
0'
0#
08
#3235000
1'
1#
18
#3240000
b101000100 A
0'
0#
08
#3245000
1'
1#
18
#3250000
b101000101 A
0'
0#
08
#3255000
1'
1#
18
#3260000
b101000110 A
0'
0#
08
#3265000
1'
1#
18
#3270000
b101000111 A
0'
0#
08
#3275000
1'
1#
18
#3280000
b101001000 A
0'
0#
08
#3285000
1'
1#
18
#3290000
b101001001 A
0'
0#
08
#3295000
1'
1#
18
#3300000
b101001010 A
0'
0#
08
#3305000
1'
1#
18
#3310000
b101001011 A
0'
0#
08
#3315000
1'
1#
18
#3320000
b101001100 A
0'
0#
08
#3325000
1'
1#
18
#3330000
b101001101 A
0'
0#
08
#3335000
1'
1#
18
#3340000
b101001110 A
0'
0#
08
#3345000
1'
1#
18
#3350000
b101001111 A
0'
0#
08
#3355000
1'
1#
18
#3360000
b101010000 A
0'
0#
08
#3365000
1'
1#
18
#3370000
b101010001 A
0'
0#
08
#3375000
1'
1#
18
#3380000
b101010010 A
0'
0#
08
#3385000
1'
1#
18
#3390000
b101010011 A
0'
0#
08
#3395000
1'
1#
18
#3400000
b101010100 A
0'
0#
08
#3405000
1'
1#
18
#3410000
b101010101 A
0'
0#
08
#3415000
b0x0xxxxx0000 &
1'
1#
18
#3420000
b101010110 A
0'
0#
08
#3425000
1'
1#
18
#3430000
b101010111 A
1G
0'
0#
08
#3435000
z.
b0x0xxxxxz000 &
1'
1#
18
#3440000
b101011000 A
0G
0'
0#
08
#3445000
z0
0.
b0x0xxxxz0000 &
1'
1#
18
#3450000
b101011001 A
0'
0#
08
#3455000
z2
x0
b0x0xxxzx0000 &
1'
1#
18
#3460000
b101011010 A
0'
0#
08
#3465000
x2
b0x0xx1xx0000 &
1'
1#
18
#3470000
b101011011 A
1G
0'
0#
08
#3475000
z.
b0x0x0xxxz000 &
1'
1#
18
#3480000
b101011100 A
0'
0#
08
#3485000
z0
b0x00xxxzz000 &
1'
1#
18
#3490000
b101011101 A
0G
0'
0#
08
#3495000
z2
0.
b0x0xxxzz0000 &
1'
1#
18
#3500000
b101011110 A
0'
0#
08
#3505000
x0
b0x0xx1zx0000 &
1'
1#
18
#3510000
b101011111 A
0'
0#
08
#3515000
x2
b0x0x01xx0000 &
1'
1#
18
#3520000
b101100000 A
0'
0#
08
#3525000
b0x000xxx0000 &
1'
1#
18
#3530000
b101100001 A
0'
0#
08
#3535000
b0x00xxxx0000 &
1'
1#
18
#3540000
b101100010 A
0'
0#
08
#3545000
b0x0xxxxx0000 &
1'
1#
18
#3550000
b101100011 A
0'
0#
08
#3555000
1'
1#
18
#3560000
b101100100 A
0'
0#
08
#3565000
1'
1#
18
#3570000
b101100101 A
0'
0#
08
#3575000
1'
1#
18
#3580000
b101100110 A
0'
0#
08
#3585000
b0xxxxxxx0000 &
1'
1#
18
#3590000
b101100111 A
1G
0'
0#
08
#3595000
z.
b0x0xxxxxz000 &
1'
1#
18
#3600000
b101101000 A
0'
0#
08
#3605000
z0
b0x0xxxxzz000 &
1'
1#
18
#3610000
b101101001 A
0G
0'
0#
08
#3615000
z2
0.
b0x0xxxzz0000 &
1'
1#
18
#3620000
b101101010 A
1G
0'
0#
08
#3625000
x0
z.
b0x0xx1zxz000 &
1'
1#
18
#3630000
b101101011 A
0G
0'
0#
08
#3635000
x2
z0
0.
b0x0x01xz0000 &
1'
1#
18
#3640000
b101101100 A
0'
0#
08
#3645000
z2
x0
b0x000xzx0000 &
1'
1#
18
#3650000
b101101101 A
0'
0#
08
#3655000
x2
b0x00x1xx0000 &
1'
1#
18
#3660000
b101101110 A
0'
0#
08
#3665000
b0x0x0xxx0000 &
1'
1#
18
#3670000
b101101111 A
0'
0#
08
#3675000
b0x00xxxx0000 &
1'
1#
18
#3680000
b101110000 A
0'
0#
08
#3685000
b0x0xxxxx0000 &
1'
1#
18
#3690000
b101110001 A
0'
0#
08
#3695000
1'
1#
18
#3700000
b101110010 A
0'
0#
08
#3705000
1'
1#
18
#3710000
b101110011 A
0'
0#
08
#3715000
1'
1#
18
#3720000
b101110100 A
0'
0#
08
#3725000
1'
1#
18
#3730000
b101110101 A
0'
0#
08
#3735000
1'
1#
18
#3740000
b101110110 A
0'
0#
08
#3745000
1'
1#
18
#3750000
b101110111 A
0'
0#
08
#3755000
b0x0xxxxx0000 &
1'
1#
18
#3760000
b101111000 A
0'
0#
08
#3765000
b0x0xxxxx0000 &
1'
1#
18
#3770000
b101111001 A
0'
0#
08
#3775000
b0xxxxxxx0000 &
1'
1#
18
#3780000
b101111010 A
0'
0#
08
#3785000
b0x0xxxxx0000 &
1'
1#
18
#3790000
b101111011 A
0'
0#
08
#3795000
b0x0xxxxx0000 &
1'
1#
18
#3800000
b101111100 A
0'
0#
08
#3805000
1'
1#
18
#3810000
b101111101 A
0'
0#
08
#3815000
1'
1#
18
#3820000
b101111110 A
0'
0#
08
#3825000
0+
b0x0xxxxx0000 &
1'
1#
18
#3830000
b101111111 A
0'
0#
08
#3835000
z+
b0x0xxxxx00z0 &
1'
1#
18
#3840000
b110000000 A
0'
0#
08
#3845000
1'
1#
18
#3850000
b110000001 A
0'
0#
08
#3855000
0+
b0x0xxxxx0000 &
1'
1#
18
#3860000
b110000010 A
0'
0#
08
#3865000
1'
1#
18
#3870000
b110000011 A
0'
0#
08
#3875000
1'
1#
18
#3880000
b110000100 A
0'
0#
08
#3885000
1'
1#
18
#3890000
b110000101 A
0'
0#
08
#3895000
z+
b0x0xxxxx00z0 &
1'
1#
18
#3900000
b110000110 A
0'
0#
08
#3905000
1'
1#
18
